Sun, 30 Nov 2014 12:36:34 GMT CHARGED 
Thu, 04 Dec 2014 10:53:04 GMT CHARGED 
Sun, 07 Dec 2014 14:36:05 GMT CHARGED 
Tue, 09 Dec 2014 17:08:09 GMT CHARGED 
Wed, 10 Dec 2014 17:15:14 GMT CHARGED 
Wed, 17 Dec 2014 18:26:14 GMT CHARGED 
Wed, 24 Dec 2014 18:25:59 GMT CHARGED 
Sun, 28 Dec 2014 15:22:28 GMT CHARGED 
Sat, 03 Jan 2015 15:21:41 GMT CHARGED 
Tue, 06 Jan 2015 05:59:34 GMT CHARGED 
Thu, 08 Jan 2015 18:58:01 GMT CHARGED 
Tue, 13 Jan 2015 06:00:01 GMT CHARGED 
Thu, 15 Jan 2015 23:35:50 GMT CHARGED 
Tue, 20 Jan 2015 06:00:02 GMT CHARGED 
Tue, 27 Jan 2015 05:59:51 GMT CHARGED 
Wed, 28 Jan 2015 15:37:15 GMT CHARGED 
Mon, 02 Feb 2015 19:03:19 GMT CHARGED 
Mon, 09 Feb 2015 19:05:20 GMT CHARGED 
Mon, 16 Feb 2015 19:05:12 GMT CHARGED 
Mon, 23 Feb 2015 19:04:59 GMT CHARGED 
Mon, 02 Mar 2015 19:04:39 GMT CHARGED 
Mon, 09 Mar 2015 19:04:59 GMT CHARGED 
Mon, 16 Mar 2015 19:04:36 GMT CHARGED 
Mon, 23 Mar 2015 19:05:11 GMT CHARGED 
Mon, 30 Mar 2015 19:04:48 GMT CHARGED 
Mon, 06 Apr 2015 19:05:26 GMT CHARGED 
Mon, 13 Apr 2015 19:04:59 GMT CHARGED 
Mon, 20 Apr 2015 21:28:53 GMT CHARGED 
Wed, 22 Apr 2015 17:19:43 GMT CHARGED 
Wed, 29 Apr 2015 19:52:00 GMT CHARGED 
Thu, 30 Apr 2015 15:16:38 GMT CHARGED 
Wed, 06 May 2015 04:59:58 GMT CHARGED 
Mon, 11 May 2015 16:09:49 GMT CHARGED 
Mon, 18 May 2015 17:16:05 GMT CHARGED 
Mon, 25 May 2015 17:15:38 GMT CHARGED 
Mon, 01 Jun 2015 17:16:14 GMT CHARGED 
Mon, 08 Jun 2015 17:15:41 GMT CHARGED 
Sun, 14 Jun 2015 04:59:38 GMT CHARGED 
Tue, 16 Jun 2015 19:35:19 GMT CHARGED 
Tue, 23 Jun 2015 22:06:11 GMT CHARGED 
Sun, 28 Jun 2015 04:59:32 GMT CHARGED 
Wed, 01 Jul 2015 04:59:39 GMT CHARGED 
Wed, 08 Jul 2015 05:00:04 GMT CHARGED 
Wed, 15 Jul 2015 05:00:15 GMT CHARGED 
Tue, 21 Jul 2015 04:59:49 GMT CHARGED 
Thu, 23 Jul 2015 21:11:22 GMT CHARGED 
Thu, 30 Jul 2015 19:14:21 GMT CHARGED 
Thu, 30 Jul 2015 19:14:21 GMT CHARGED 
Tue, 04 Aug 2015 21:34:06 GMT CHARGED 
Wed, 05 Aug 2015 21:08:25 GMT CHARGED 
Mon, 10 Aug 2015 16:12:30 GMT CHARGED 
Wed, 12 Aug 2015 17:01:27 GMT CHARGED 
Thu, 13 Aug 2015 21:39:04 GMT CHARGED 
Mon, 17 Aug 2015 15:22:43 GMT CHARGED 
Wed, 19 Aug 2015 04:59:30 GMT CHARGED 
Thu, 20 Aug 2015 06:17:21 GMT CHARGED 
Mon, 24 Aug 2015 04:59:33 GMT CHARGED 
Wed, 26 Aug 2015 10:47:18 GMT CHARGED 
Thu, 27 Aug 2015 21:45:52 GMT CHARGED 
Mon, 31 Aug 2015 16:15:06 GMT CHARGED 
Wed, 02 Sep 2015 04:59:30 GMT CHARGED 
Thu, 03 Sep 2015 21:26:16 GMT CHARGED 
Mon, 07 Sep 2015 04:59:35 GMT CHARGED 
Wed, 09 Sep 2015 04:59:31 GMT CHARGED 
Thu, 10 Sep 2015 13:35:48 GMT CHARGED 
Mon, 14 Sep 2015 04:59:35 GMT CHARGED 
Sun, 20 Sep 2015 04:59:33 GMT CHARGED 
Tue, 22 Sep 2015 17:23:17 GMT CHARGED 
Thu, 24 Sep 2015 10:49:27 GMT CHARGED 
Tue, 29 Sep 2015 04:59:53 GMT CHARGED 
Mon, 05 Oct 2015 04:59:38 GMT CHARGED 
Wed, 07 Oct 2015 04:59:31 GMT CHARGED 
Thu, 08 Oct 2015 14:45:13 GMT CHARGED 
Thu, 08 Oct 2015 17:54:52 GMT CHARGED 
Tue, 13 Oct 2015 04:59:45 GMT CHARGED 
Thu, 15 Oct 2015 10:38:42 GMT CHARGED 
Tue, 20 Oct 2015 14:43:47 GMT CHARGED 
Thu, 22 Oct 2015 17:49:15 GMT CHARGED 
Mon, 26 Oct 2015 05:52:12 GMT CHARGED 
Wed, 28 Oct 2015 04:59:30 GMT CHARGED 
Thu, 29 Oct 2015 17:36:53 GMT CHARGED 
Mon, 02 Nov 2015 16:43:53 GMT CHARGED 
Sun, 08 Nov 2015 05:59:34 GMT CHARGED 
Tue, 10 Nov 2015 17:00:27 GMT CHARGED 
Wed, 11 Nov 2015 16:56:39 GMT CHARGED 
Wed, 11 Nov 2015 21:06:01 GMT CHARGED 
Thu, 12 Nov 2015 17:30:28 GMT CHARGED 
Wed, 18 Nov 2015 05:59:56 GMT CHARGED 
Tue, 24 Nov 2015 19:43:01 GMT CHARGED 
Wed, 25 Nov 2015 21:54:44 GMT CHARGED 
Wed, 02 Dec 2015 05:59:57 GMT CHARGED 
Mon, 07 Dec 2015 18:59:03 GMT CHARGED 
Mon, 14 Dec 2015 18:59:59 GMT CHARGED 
Wed, 16 Dec 2015 15:49:33 GMT CHARGED 
Tue, 22 Dec 2015 05:59:54 GMT CHARGED 
Wed, 23 Dec 2015 20:55:02 GMT CHARGED 
Thu, 24 Dec 2015 21:04:28 GMT CHARGED 
Fri, 01 Jan 2016 00:37:04 GMT CHARGED 
Mon, 04 Jan 2016 15:22:44 GMT CHARGED 
Wed, 06 Jan 2016 15:47:45 GMT CHARGED 
Mon, 11 Jan 2016 17:58:57 GMT CHARGED 
Wed, 13 Jan 2016 16:26:01 GMT CHARGED 
Tue, 19 Jan 2016 06:00:01 GMT CHARGED 
Wed, 20 Jan 2016 20:55:15 GMT CHARGED 
Mon, 25 Jan 2016 18:21:21 GMT CHARGED 
Mon, 25 Jan 2016 22:18:22 GMT CHARGED 
Mon, 25 Jan 2016 22:54:21 GMT CHARGED 
Tue, 26 Jan 2016 20:10:43 GMT CHARGED 
Wed, 27 Jan 2016 05:59:32 GMT CHARGED 
Thu, 28 Jan 2016 18:50:26 GMT CHARGED 
Wed, 03 Feb 2016 05:59:40 GMT CHARGED 
Tue, 09 Feb 2016 05:59:36 GMT CHARGED 
Thu, 11 Feb 2016 13:49:01 GMT CHARGED 
Mon, 15 Feb 2016 18:38:44 GMT CHARGED 
Wed, 17 Feb 2016 13:45:19 GMT CHARGED 
Wed, 17 Feb 2016 19:37:47 GMT CHARGED 
Wed, 17 Feb 2016 22:18:23 GMT CHARGED 
Thu, 18 Feb 2016 15:46:24 GMT CHARGED 
Mon, 22 Feb 2016 16:22:07 GMT CHARGED 
Wed, 24 Feb 2016 21:16:27 GMT CHARGED 
Thu, 25 Feb 2016 17:41:57 GMT CHARGED 
Fri, 26 Feb 2016 23:09:59 GMT CHARGED 
Tue, 01 Mar 2016 22:13:09 GMT CHARGED 
Thu, 03 Mar 2016 16:18:58 GMT CHARGED 
Mon, 07 Mar 2016 18:17:31 GMT CHARGED 
Wed, 09 Mar 2016 05:59:34 GMT CHARGED 
Thu, 10 Mar 2016 22:35:24 GMT CHARGED 
Thu, 17 Mar 2016 15:54:10 GMT CHARGED 
Thu, 17 Mar 2016 15:54:10 GMT CHARGED 
Mon, 21 Mar 2016 15:31:57 GMT CHARGED 
Wed, 23 Mar 2016 17:11:13 GMT CHARGED 
Mon, 28 Mar 2016 21:53:41 GMT CHARGED 
Wed, 30 Mar 2016 04:59:40 GMT CHARGED 
Thu, 31 Mar 2016 07:34:04 GMT CHARGED 
Tue, 05 Apr 2016 22:17:52 GMT CHARGED 
Wed, 06 Apr 2016 19:13:37 GMT CHARGED 
Mon, 11 Apr 2016 04:59:34 GMT CHARGED 
Wed, 13 Apr 2016 04:59:32 GMT CHARGED 
Thu, 14 Apr 2016 12:05:30 GMT CHARGED 
Mon, 18 Apr 2016 19:32:31 GMT CHARGED 
Wed, 20 Apr 2016 04:59:32 GMT CHARGED 
Fri, 22 Apr 2016 00:30:29 GMT CHARGED 
Tue, 26 Apr 2016 05:00:14 GMT CHARGED 
Wed, 27 Apr 2016 12:06:37 GMT CHARGED 
Sun, 01 May 2016 20:41:04 GMT CHARGED 
Mon, 02 May 2016 18:11:33 GMT CHARGED 
Wed, 04 May 2016 20:27:00 GMT CHARGED 
Thu, 05 May 2016 16:58:17 GMT CHARGED 
Mon, 09 May 2016 10:27:13 GMT CHARGED 
Wed, 11 May 2016 05:00:09 GMT CHARGED 
Thu, 12 May 2016 11:01:46 GMT CHARGED 
Mon, 16 May 2016 15:44:47 GMT CHARGED 
Wed, 18 May 2016 04:59:48 GMT CHARGED 
Thu, 19 May 2016 07:47:22 GMT CHARGED 
Wed, 25 May 2016 16:05:29 GMT CHARGED 
Thu, 26 May 2016 05:41:05 GMT CHARGED 
Thu, 26 May 2016 14:17:41 GMT CHARGED 
Mon, 30 May 2016 11:28:51 GMT CHARGED 
Wed, 01 Jun 2016 07:00:26 GMT CHARGED 
Tue, 07 Jun 2016 20:39:44 GMT CHARGED 
Wed, 08 Jun 2016 15:06:46 GMT CHARGED 
Thu, 09 Jun 2016 16:00:10 GMT CHARGED 
Sun, 10 Jul 2016 01:33:45 GMT CHARGED 
Mon, 11 Jul 2016 23:28:41 GMT CHARGED 
Mon, 18 Jul 2016 13:00:59 GMT CHARGED 
